{
    "name": "Cristal",
    "homepage": "https://cprowab.bitbucket.io/web",
    "repositories": [
        {
            "type": "vcs",
            "url": "ssh://git@git.koesio.io/cristal/semantic-form.git"
        },
        {
            "type": "vcs",
            "url": "ssh://git@git.koesio.io/cristal/cocainated.git"
        },
        {
            "type": "vcs",
            "url": "ssh://git@git.koesio.io/packages/infolegale.git"
        },
        {
            "type": "vcs",
            "url": "ssh://git@git.koesio.io/packages/artis-api.git"
        },
        {
            "type": "vcs",
            "url": "ssh://git@git.koesio.io/packages/isi-sms.git"
        },
        {
            "type": "vcs",
            "url": "ssh://git@git.koesio.io/packages/leaseboard.git"
        },
        {
            "type": "vcs",
            "url": "ssh://git@git.koesio.io/packages/ededoc.git"
        },
        {
    	    "type" : "vcs",
    	    "url": "ssh://git@git.koesio.io/packages/ededoc.git",
    	    "vendor-alias": "cpro"
        },
        {
            "type": "vcs",
            "url": "ssh://git@git.koesio.io/packages/therefore-api.git"
        },
        {
            "type": "vcs",
            "url": "ssh://git@git.koesio.io/packages/cristal-api-wrapper.git"
        },
	{
	   "type": "vcs",
	   "url": "ssh://git@git.koesio.io/cristal/semantic-form.git"
	},
	{
	   "type": "vcs",
	   "url": "ssh://git@git.koesio.io/cristal/modules/miniware.git"
	}
    ],
    "require-all": true
}
